{
    "id": "lulzbot_taz6_banded_tiger",
    "name": "LulzBot TAZ 6 | HS | 0.8 mm",
    "inherits": "lulzbot_taz6",
    "version": 2,
    "metadata":
    {
        "priority": "04",
        "machine_extruder_trains":
        {
            "0": "lulzbot_taz6_banded_tiger_extruder"
        },
        "type": "machine",
        "visible": true,
        "user_toolhead_name": "HS | 0.8 mm",
        "toolhead_info_link": "https://www.lulzbot.com/store/tool-heads/hs-tool-head-hardened-steel-08-mm?pk_campaign=software-cura",
        "firmware_toolhead_name": "HardenedSteel"
    },
    "overrides":
    {
        "machine_name":
        {
            "default_value": "LulzBot TAZ 6 | HS | 0.8 mm"
        },
        "machine_start_gcode":
        {
            "default_value_from_file": "lulzbot_taz6_banded_tiger_start"
        },
        "machine_end_gcode":
        {
            "default_value_from_file": "lulzbot_taz6_end"
        }
    }
}
