{
    "id": "LulzBot_Mini_aerostruder",
    "name": "LulzBot Mini Aerostruder",
    "inherits": "lulzbot_mini",
    "version": 2,
    "metadata":
    {
        "priority": "06",
        "machine_extruder_trains":
        {
            "0": "lulzbot_mini_aerostruder_extruder"
        },
        "type": "machine",
        "visible": true,
        "user_toolhead_name": "Aerostruder v1",
        "firmware_toolhead_name": "Aerostruder"
    },
    "overrides":
    {
        "machine_name":
        {
            "default_value": "LulzBot Mini Aerostruder"
        },
        "machine_start_gcode":
        {
            "default_value_from_file": "lulzbot_mini_aerostruder_start"
        },
        "machine_end_gcode":
        {
            "default_value_from_file": "lulzbot_mini_end"
        }
    }
}
